{
  "/api/solr/*": {
    "target": "http://34.229.53.91:8983",
    "secure": false,
    "logLevel": "debug",
    "changeOrigin": true,
    "pathRewrite": {"^/api" : ""}
  },
  "/api/config/*": {
    "target": "http://localhost:3000",
    "secure": false,
    "logLevel": "debug",
    "changeOrigin": true,
    "pathRewrite": {"^/api" : ""}
  },
  "/api/nlu/*": {
    "target": "http://34.229.53.91:8080",
    "secure": false,
    "logLevel": "debug",
    "changeOrigin": true,
    "pathRewrite": {"^/api" : ""}
  }
}
